// Jest Snapshot v1, https://goo.gl/fbAQLP

exports[`<Canvas /> should match the snapshot 1`] = `
.c1 {
  border-radius: 5%;
  cursor: pointer;
  -webkit-transition: 0.3s;
  transition: 0.3s;
  box-shadow: 6px 6px 3px;
  border: 2px solid;
}

.c1:hover {
  box-shadow: none;
}

.c0 {
  border: 3px solid;
  display: block;
  background-color: transparent;
}

<div
  class=""
>
  <canvas
    class="c0"
    height="480"
    width="720"
  />
  <button
    class="c1"
    type="button"
  >
    Toggle
  </button>
  <div>
    線画モード: 黒
  </div>
  <button
    class="c1"
    type="button"
  >
    Clear All
  </button>
</div>
`;
